\relax 
\providecommand\hyper@newdestlabel[2]{}
\providecommand\babel@aux[2]{}
\@nameuse{bbl@beforestart}
\catcode `"\active 
\providecommand\HyperFirstAtBeginDocument{\AtBeginDocument}
\HyperFirstAtBeginDocument{\ifx\hyper@anchor\@undefined
\global\let\oldcontentsline\contentsline
\gdef\contentsline#1#2#3#4{\oldcontentsline{#1}{#2}{#3}}
\global\let\oldnewlabel\newlabel
\gdef\newlabel#1#2{\newlabelxx{#1}#2}
\gdef\newlabelxx#1#2#3#4#5#6{\oldnewlabel{#1}{{#2}{#3}}}
\AtEndDocument{\ifx\hyper@anchor\@undefined
\let\contentsline\oldcontentsline
\let\newlabel\oldnewlabel
\fi}
\fi}
\global\let\hyper@last\relax 
\gdef\HyperFirstAtBeginDocument#1{#1}
\providecommand\HyField@AuxAddToFields[1]{}
\providecommand\HyField@AuxAddToCoFields[2]{}
\providecommand \oddpage@label [2]{}
\babel@aux{polish}{}
\babel@aux{english}{}
\@writefile{toc}{\contentsline {section}{\numberline {1}Project's topic}{2}{section.1}\protected@file@percent }
\@writefile{toc}{\contentsline {section}{\numberline {2}Analysis}{2}{section.2}\protected@file@percent }
\@writefile{toc}{\contentsline {subsection}{\numberline {2.1}Class selection}{2}{subsection.2.1}\protected@file@percent }
\newlabel{sec:classes}{{2.1}{2}{Class selection}{subsection.2.1}{}}
\@writefile{toc}{\contentsline {subsection}{\numberline {2.2}Libraries and algorithms}{3}{subsection.2.2}\protected@file@percent }
\@writefile{toc}{\contentsline {section}{\numberline {3}Data structures and algorithms}{4}{section.3}\protected@file@percent }
\@writefile{toc}{\contentsline {section}{\numberline {4}External specification}{4}{section.4}\protected@file@percent }
\@writefile{toc}{\contentsline {subsection}{\numberline {4.1}User manual}{4}{subsection.4.1}\protected@file@percent }
\@writefile{toc}{\contentsline {subsection}{\numberline {4.2}User Interface}{4}{subsection.4.2}\protected@file@percent }
\@writefile{toc}{\contentsline {subsubsection}{\numberline {4.2.1}Screenshots of the UI}{5}{subsubsection.4.2.1}\protected@file@percent }
\@writefile{lof}{\contentsline {figure}{\numberline {1}{\ignorespaces Figure presenting the world view}}{5}{figure.1}\protected@file@percent }
\@writefile{lof}{\contentsline {figure}{\numberline {2}{\ignorespaces Figure presenting the shop view}}{5}{figure.2}\protected@file@percent }
\@writefile{lof}{\contentsline {figure}{\numberline {3}{\ignorespaces Figure presenting the player view}}{6}{figure.3}\protected@file@percent }
\@writefile{lof}{\contentsline {figure}{\numberline {4}{\ignorespaces Figure presenting the menu view}}{6}{figure.4}\protected@file@percent }
\@writefile{lof}{\contentsline {figure}{\numberline {5}{\ignorespaces Figure presenting the fighting view}}{7}{figure.5}\protected@file@percent }
\@writefile{toc}{\contentsline {subsection}{\numberline {4.3}Functions available to the user}{7}{subsection.4.3}\protected@file@percent }
\@writefile{toc}{\contentsline {section}{\numberline {5}Internal specification}{8}{section.5}\protected@file@percent }
\@writefile{toc}{\contentsline {subsection}{\numberline {5.1}Relationships}{8}{subsection.5.1}\protected@file@percent }
\@writefile{toc}{\contentsline {subsection}{\numberline {5.2}Important methods}{9}{subsection.5.2}\protected@file@percent }
\@writefile{toc}{\contentsline {subsection}{\numberline {5.3}Overview of the most important classes}{14}{subsection.5.3}\protected@file@percent }
\@writefile{toc}{\contentsline {subsubsection}{\numberline {5.3.1}Player}{14}{subsubsection.5.3.1}\protected@file@percent }
\@writefile{toc}{\contentsline {subsubsection}{\numberline {5.3.2}World}{14}{subsubsection.5.3.2}\protected@file@percent }
\@writefile{toc}{\contentsline {subsubsection}{\numberline {5.3.3}Rand}{14}{subsubsection.5.3.3}\protected@file@percent }
\@writefile{toc}{\contentsline {subsubsection}{\numberline {5.3.4}FileHandler}{15}{subsubsection.5.3.4}\protected@file@percent }
\@writefile{toc}{\contentsline {subsubsection}{\numberline {5.3.5}Game}{15}{subsubsection.5.3.5}\protected@file@percent }
\@writefile{toc}{\contentsline {subsection}{\numberline {5.4}General scheme of the game's operation}{15}{subsection.5.4}\protected@file@percent }
\@writefile{toc}{\contentsline {subsection}{\numberline {5.5}Used techniques from the thematic classes}{16}{subsection.5.5}\protected@file@percent }
\@writefile{toc}{\contentsline {subsection}{\numberline {5.6}Used Object Oriented techniques}{16}{subsection.5.6}\protected@file@percent }
\@writefile{toc}{\contentsline {section}{\numberline {6}Testing, debugging and remarks}{16}{section.6}\protected@file@percent }
\@writefile{toc}{\contentsline {section}{\numberline {7}External libraries}{17}{section.7}\protected@file@percent }
\gdef \@abspage@last{18}
